Triple,Subject,Predicate,Object,Sentence,Template
1 decembrie 1918 university | city | alba iulia,1 decembrie 1918 university,city,alba iulia,"the ""1 decembrie 1918 university"" is in the city alba iulia.","the ""<SUBJECT>"" is in the city <OBJECT>."
1 decembrie 1918 university | city | alba iulia,1 decembrie 1918 university,city,alba iulia,"the city of alba iulia has a university called ""1 decembrie 1918 university"".","the city of <OBJECT> has a university called ""<SUBJECT>""."
1 decembrie 1918 university | city | alba iulia,1 decembrie 1918 university,city,alba iulia,the 1 decembrie 1918 university is located in the city of alba iulia.,the <SUBJECT> is located in the city of <OBJECT>.
1 decembrie 1918 university | country | romania,1 decembrie 1918 university,country,romania,the 1 decembrie 1918 university is located in the country of romania.,the <SUBJECT> is located in the country of <OBJECT>.
1 decembrie 1918 university | country | romania,1 decembrie 1918 university,country,romania,the 1 decembrie 1918 university is located in romania.,the <SUBJECT> is located in <OBJECT>.
1 decembrie 1918 university | latin name | universitas apulensis,1 decembrie 1918 university,latin name,universitas apulensis,"the latin name of the 1 decembrie 1918 university is ""universitas apulensis"".","the latin name of the <SUBJECT> is ""<OBJECT>""."
1 decembrie 1918 university | latin name | universitas apulensis,1 decembrie 1918 university,latin name,universitas apulensis,the latin name of 1 decembrie 1918 university is universitas apulensis.,the latin name of <SUBJECT> is <OBJECT>.
1 decembrie 1918 university | latin name | universitas apulensis,1 decembrie 1918 university,latin name,universitas apulensis,the latin name for 1 decembrie 1918 university is universitas apulensis.,the latin name for <SUBJECT> is <OBJECT>.
1 decembrie 1918 university | nickname | uab,1 decembrie 1918 university,nickname,uab,the 1 decembrie 1918 university has the nickname uab.,the <SUBJECT> has the nickname <OBJECT>.
1 decembrie 1918 university | rector | breaz valer daniel,1 decembrie 1918 university,rector,breaz valer daniel,breaz valer daniel is rector of the 1 decembrie 1918 university.,<OBJECT> is rector of the <SUBJECT>.
1 decembrie 1918 university | rector | breaz valer daniel,1 decembrie 1918 university,rector,breaz valer daniel,the rector of the 1 decembrie 1918 university is breaz valer daniel.,the rector of the <SUBJECT> is <OBJECT>.
awh engineering college | academic staff size | 250,awh engineering college,academic staff size,250,the academic staff at the awh engineering college number 250.,the academic staff at the <SUBJECT> number <OBJECT>.
awh engineering college | academic staff size | 250,awh engineering college,academic staff size,250,the awh engineering college has academic staff size of 250.,the <SUBJECT> has academic staff size of <OBJECT>.
awh engineering college | academic staff size | 250,awh engineering college,academic staff size,250,awh engineering college has an academic staff of 250.,<SUBJECT> has an academic staff of <OBJECT>.
awh engineering college | city | kuttikkattoor,awh engineering college,city,kuttikkattoor,the awh engineering college is located in kuttikkattoor.,the <SUBJECT> is located in <OBJECT>.
awh engineering college | city | kuttikkattoor,awh engineering college,city,kuttikkattoor,awh engineering college is in the city of kuttikkattoor.,<SUBJECT> is in the city of <OBJECT>.
awh engineering college | city | kuttikkattoor,awh engineering college,city,kuttikkattoor,awh engineering college is located in kuttikkattoor.,<SUBJECT> is located in <OBJECT>.
awh engineering college | country | india,awh engineering college,country,india,awh engineering college is located in india.,<SUBJECT> is located in <OBJECT>.
awh engineering college | established | 2001,awh engineering college,established,2001,the awh engineering college was established in 2001.,the <SUBJECT> was established in <OBJECT>.
awh engineering college | state | kerala,awh engineering college,state,kerala,awh engineering college is located in kerala state.,<SUBJECT> is located in <OBJECT> state.
awh engineering college | state | kerala,awh engineering college,state,kerala,the awh engineering college is in the state of kerala.,the <SUBJECT> is in the state of <OBJECT>.
aarhus | government type | magistrate,aarhus,government type,magistrate,the type of government of aarhus is magistrate.,the type of government of <SUBJECT> is <OBJECT>.
aarhus | government type | magistrate,aarhus,government type,magistrate,the city of aarhus is governed by magistrates.,the city of <SUBJECT> is governed by <OBJECT>s.
aarhus | has to its northeast | mols,aarhus,has to its northeast,mols,mols is to the northeast of aarhus.,<OBJECT> is to the northeast of <SUBJECT>.
aarhus | has to its northeast | mols,aarhus,has to its northeast,mols,aarhus has to its northeast mols.,<SUBJECT> has to its northeast <OBJECT>.
aarhus | has to its northeast | mols,aarhus,has to its northeast,mols,mols is the area to the northeast of aarhus.,<OBJECT> is the area to the northeast of <SUBJECT>.
accademia di architettura di mendrisio | city | mendrisio,accademia di architettura di mendrisio,city,mendrisio,accademia di architettura di mendrisio is located in the city of mendrisio.,<SUBJECT> is located in the city of <OBJECT>.
accademia di architettura di mendrisio | city | mendrisio,accademia di architettura di mendrisio,city,mendrisio,the accademia di architettura di mendrisio is located in the city of mendrisio.,<SUBJECT> is located in the city of <OBJECT>.
accademia di architettura di mendrisio | country | switzerland,accademia di architettura di mendrisio,country,switzerland,the accademia di architettura di mendrisio is located in switzerland.,the <SUBJECT> is located in <OBJECT>.
accademia di architettura di mendrisio | country | switzerland,accademia di architettura di mendrisio,country,switzerland,accademia di architettura di mendrisio is located in switzerland.,<SUBJECT> is located in <OBJECT>.
accademia di architettura di mendrisio | country | switzerland,accademia di architettura di mendrisio,country,switzerland,accademia di architettura di mendrisio is in switzerland.,<SUBJECT> is in <OBJECT>.
accademia di architettura di mendrisio | dean | mario botta,accademia di architettura di mendrisio,dean,mario botta,the dean of the accademia di architettura di mendrisio is mario botta.,the dean of the <SUBJECT> is <OBJECT>.
accademia di architettura di mendrisio | dean | mario botta,accademia di architettura di mendrisio,dean,mario botta,accademia di architettura di mendrisio's dean is mario botta.,<SUBJECT>'s dean is <OBJECT>.
accademia di architettura di mendrisio | established | 1996,accademia di architettura di mendrisio,established,1996,the accademia di architettura di mendrisio was established in 1996.,the <SUBJECT> was established in <OBJECT>.
accademia di architettura di mendrisio | location | ticino,accademia di architettura di mendrisio,location,ticino,the accademia di architettura di mendrisio is located in ticino.,the <SUBJECT> is located in <OBJECT>.
accademia di architettura di mendrisio | location | ticino,accademia di architettura di mendrisio,location,ticino,ticino is the location of the accademia di architettura di mendrisio.,<OBJECT> is the location of the <SUBJECT>.
accademia di architettura di mendrisio | number of students | 600,accademia di architettura di mendrisio,number of students,600,there are 600 students at the accademia di architettura di mendrisio.,there are <OBJECT> students at the <SUBJECT>.
accademia di architettura di mendrisio | number of students | 600,accademia di architettura di mendrisio,number of students,600,six hundred students attend the accademia di architettura di mendriso.,<OBJECT> students attend the <SUBJECT>.
accademia di architettura di mendrisio | number of students | 600,accademia di architettura di mendrisio,number of students,600,the accademia di architettura di mendrisio has 600 students.,the <SUBJECT> has <OBJECT> students.
accademia di architettura di mendrisio | number of students | 600,accademia di architettura di mendrisio,number of students,600,accademia di architettura di mendrisio has 600 students enrolled.,<SUBJECT> has <OBJECT> students enrolled.
accademia di architettura di mendrisio | number of students | 600,accademia di architettura di mendrisio,number of students,600,there are 600 students attending the accademia di architettura di mendrisio.,there are <OBJECT> students attending the <SUBJECT>.
acharya institute of technology | academic staff size | 500,acharya institute of technology,academic staff size,500,acharya institute of technology's academic staff total is ~500.,<SUBJECT>'s academic staff total is ~<OBJECT>.
acharya institute of technology | academic staff size | 500,acharya institute of technology,academic staff size,500,the acharya institute of technology employs about 500 academic staff.,the <SUBJECT> employs about <OBJECT> academic staff.
acharya institute of technology | academic staff size | 500,acharya institute of technology,academic staff size,500,approximately 500 employees make up the academic staff at acharya institute of technology.,approximately <OBJECT> employees make up the academic staff at <SUBJECT>.
acharya institute of technology | affiliation | visvesvaraya technological university,acharya institute of technology,affiliation,visvesvaraya technological university,the acharya institute of technology is affiliated with visvesvaraya technologial university.,the <SUBJECT> is affiliated with <OBJECT>.
acharya institute of technology | affiliation | visvesvaraya technological university,acharya institute of technology,affiliation,visvesvaraya technological university,acharya institute of technology is affiliated to visvesvaraya technological university.,<SUBJECT> is affiliated to <OBJECT>.
acharya institute of technology | affiliation | visvesvaraya technological university,acharya institute of technology,affiliation,visvesvaraya technological university,the acharya institute of technology is affiliated with the visvesvaraya technological university.,the <SUBJECT> is affiliated with the <OBJECT>.
acharya institute of technology | affiliation | visvesvaraya technological university,acharya institute of technology,affiliation,visvesvaraya technological university,acharya institute of technology is affiliated to the visvesvaraya technological university.,<SUBJECT> is affiliated to the <OBJECT>.
acharya institute of technology | affiliation | visvesvaraya technological university,acharya institute of technology,affiliation,visvesvaraya technological university,acharya institute of technology is affilaited with visvesvaraya technological university.,<SUBJECT> is affilaited with <OBJECT>.
acharya institute of technology | city | bangalore,acharya institute of technology,city,bangalore,the acharya institute of technology is located in the city of bangalore.,the <SUBJECT> is located in the city of <OBJECT>.
acharya institute of technology | city | bangalore,acharya institute of technology,city,bangalore,acharya institute of technology is located in bangalore.,<SUBJECT> is located in <OBJECT>.
acharya institute of technology | city | bangalore,acharya institute of technology,city,bangalore,acharya institute of technology is in bangalore.,<SUBJECT> is in <OBJECT>.
acharya institute of technology | country | india,acharya institute of technology,country,india,acharya institute of technology can be found in india.,<SUBJECT> can be found in <OBJECT>.
acharya institute of technology | country | india,acharya institute of technology,country,india,acharya institute of technology is located in india.,<SUBJECT> is located in <OBJECT>.
acharya institute of technology | country | india,acharya institute of technology,country,india,the acharya institute of technology is located in india.,the <SUBJECT> is located in <OBJECT>.
acharya institute of technology | director | dr. g. p. prabhukumar,acharya institute of technology,director,dr. g. p. prabhukumar,dr. g. p. prabhukumar is the director of the acharya institute of technology.,<OBJECT> is the director of the <SUBJECT>.
acharya institute of technology | director | dr. g. p. prabhukumar,acharya institute of technology,director,dr. g. p. prabhukumar,the director of acharya institute of technology is dr. g. p. prabhukumar.,the director of <SUBJECT> is <OBJECT>.
acharya institute of technology | director | dr. g. p. prabhukumar,acharya institute of technology,director,dr. g. p. prabhukumar,acharya institute of technology's director is dr. g. p. prabhukumar.,<SUBJECT>'s director is <OBJECT>.
acharya institute of technology | established | 2000,acharya institute of technology,established,2000,the acharya institute of technology was established in the year 2000.,the <SUBJECT> was established in the year <OBJECT>.
acharya institute of technology | established | 2000,acharya institute of technology,established,2000,the acharya institute of technology was established in 2000.,the <SUBJECT> was established in <OBJECT>.
acharya institute of technology | motto | nurturing excellence,acharya institute of technology,motto,nurturing excellence,acharya institute of technology's motto is nurturing excellence.,<SUBJECT>'s motto is <OBJECT>.
acharya institute of technology | motto | nurturing excellence,acharya institute of technology,motto,nurturing excellence,the motto of the acharya institute of technology is 'nurturing excellence.'.,the motto of the <SUBJECT> is '<OBJECT>.'.
acharya institute of technology | motto | nurturing excellence,acharya institute of technology,motto,nurturing excellence,"the motto of the acharya institute of technology is ""nurturing excellence"".","the motto of the <SUBJECT> is ""<OBJECT>""."
acharya institute of technology | nickname | ait,acharya institute of technology,nickname,ait,ait is the nickname for the acharya institute of technology.,<OBJECT> is the nickname for the <SUBJECT>.
acharya institute of technology | nickname | ait,acharya institute of technology,nickname,ait,the nickname of the acharya institute of technology is ait.,the nickname of the <SUBJECT> is <OBJECT>.
acharya institute of technology | nickname | ait,acharya institute of technology,nickname,ait,acharya institute of technology is known as ait.,<SUBJECT> is known as <OBJECT>.
acharya institute of technology | number of postgraduate students | 700,acharya institute of technology,number of postgraduate students,700,the number of post graduate students at the acharya institute of technology is about 700.,the number of post graduate students at the <SUBJECT> is about <OBJECT>.
acharya institute of technology | number of postgraduate students | 700,acharya institute of technology,number of postgraduate students,700,the number of postgraduate students in acharya institute of technology is ~700.,the number of postgraduate students in <SUBJECT> is ~<OBJECT>.
acharya institute of technology | number of postgraduate students | 700,acharya institute of technology,number of postgraduate students,700,there are around 700 postgraduate students at the acharya institute of technology.,there are around <OBJECT> postgraduate students at the <SUBJECT>.
acharya institute of technology | number of postgraduate students | 700,acharya institute of technology,number of postgraduate students,700,there are about 700 post graduate students at the acharya institute of technology.,there are about <OBJECT> post graduate students at the <SUBJECT>.
acharya institute of technology | number of postgraduate students | 700,acharya institute of technology,number of postgraduate students,700,acharya institute of technology has 700 postgraduate students.,<SUBJECT> has <OBJECT> postgraduate students.
acharya institute of technology | number of postgraduate students | 700,acharya institute of technology,number of postgraduate students,700,700 students are enrolled in a post-graduate program at acharya institute of technology.,<OBJECT> students are enrolled in a post-graduate program at <SUBJECT>.
acharya institute of technology | number of undergraduate students | 10000,acharya institute of technology,number of undergraduate students,10000,the number of undergraduates attending the acharya institute of technology is roughly 10000 students.,the number of undergraduates attending the <SUBJECT> is roughly <OBJECT> students.
acharya institute of technology | number of undergraduate students | 10000,acharya institute of technology,number of undergraduate students,10000,acharya institute of technology's number of undergraduate students total to ~10000.,<SUBJECT>'s number of undergraduate students total to ~<OBJECT>.
acharya institute of technology | number of undergraduate students | 10000,acharya institute of technology,number of undergraduate students,10000,there are around 10000 undergraduate students at the acharya institute of technology.,there are around <OBJECT> undergraduate students at the <SUBJECT>.
acharya institute of technology | number of undergraduate students | 10000,acharya institute of technology,number of undergraduate students,10000,the acharya institude of technology has 10000 undergraduate students.,<SUBJECT> has <OBJECT> undergraduate students.
acharya institute of technology | number of undergraduate students | 10000,acharya institute of technology,number of undergraduate students,10000,the acharya institute of technology has 10000 undergraduate students.,the <SUBJECT> has <OBJECT> undergraduate students.
acharya institute of technology | number of undergraduate students | 10000,acharya institute of technology,number of undergraduate students,10000,"acharya institute of technology has 10,000 undergraduate students.",<SUBJECT> has <OBJECT> undergraduate students.
"acharya institute of technology | official school colour | blue, white and orange",acharya institute of technology,official school colour,"blue, white and orange","blue, white and orange are the colours adopted by acharya institute of technology.",<OBJECT> are the colours adopted by <SUBJECT>.
"acharya institute of technology | official school colour | blue, white and orange",acharya institute of technology,official school colour,"blue, white and orange","blue, white and orange are the colours of acharya institute of technology.",<OBJECT> are the colours of <SUBJECT>.
"acharya institute of technology | official school colour | blue, white and orange",acharya institute of technology,official school colour,"blue, white and orange","acharya institute of technology's official colors are blue, white and orange.",<SUBJECT>'s official colors are <OBJECT>.
"acharya institute of technology | official school colour | blue, white and orange",acharya institute of technology,official school colour,"blue, white and orange","the official school colours of the archarya institute of technology are blue, white and orange.",the official school colours of the <SUBJECT> are <OBJECT>.
"acharya institute of technology | official school colour | blue, white and orange",acharya institute of technology,official school colour,"blue, white and orange",acharya institute of technology official school colors are blue white and orange.,<SUBJECT> official school colors are <OBJECT>.
"acharya institute of technology | official school colour | blue, white and orange",acharya institute of technology,official school colour,"blue, white and orange","acharya institue of technology official school colours are blue, white and orange.",<SUBJECT> official school colours are <OBJECT>.
acharya institute of technology | outlook ranking | 63,acharya institute of technology,outlook ranking,63,the outlook ranking for the acharya institute of technology is 63.,the outlook ranking for the <SUBJECT> is <OBJECT>.
acharya institute of technology | outlook ranking | 63,acharya institute of technology,outlook ranking,63,acharya institute of technology's outlook ranking is 63.,<SUBJECT>'s outlook ranking is <OBJECT>.
acharya institute of technology | outlook ranking | 63,acharya institute of technology,outlook ranking,63,acharya institute of technology has an outlook ranking of 63.,<SUBJECT> has an outlook ranking of <OBJECT>.
acharya institute of technology | sports offered | tennis,acharya institute of technology,sports offered,tennis,tennis is one of the sports offered at the acharya institute of technology.,<OBJECT> is one of the sports offered at the <SUBJECT>.
acharya institute of technology | sports offered | tennis,acharya institute of technology,sports offered,tennis,acharya institute of technology offers tennis as a sport.,<SUBJECT> offers <OBJECT> as a sport.
acharya institute of technology | sports offered | tennis,acharya institute of technology,sports offered,tennis,one of the sports offered at the acharya institute of technology is tennis.,one of the sports offered at the <SUBJECT> is <OBJECT>.
acharya institute of technology | sports offered | tennis,acharya institute of technology,sports offered,tennis,the acharya institute of technology offers sports including tennis.,the <SUBJECT> offers sports including <OBJECT>.
acharya institute of technology | state | karnataka,acharya institute of technology,state,karnataka,the acharya institute of technology is in the state of karnataka.,the <SUBJECT> is in the state of <OBJECT>.
acharya institute of technology | state | karnataka,acharya institute of technology,state,karnataka,acharya institute of technology is located in the state of karnataka.,<SUBJECT> is located in the state of <OBJECT>.
acharya institute of technology | state | karnataka,acharya institute of technology,state,karnataka,acharya institute of technology is in karnataka state.,<SUBJECT> is in <OBJECT> state.
acharya institute of technology | was given the ' technical  campus' status by | all india council for technical education,acharya institute of technology,was given the ' technical  campus' status by,all india council for technical education,the all india council for technical education was proud to give the technical campus status to the acharya institute of technology.,the <OBJECT> was proud to give the technical campus status to the <SUBJECT>.
acharya institute of technology | was given the ' technical  campus' status by | all india council for technical education,acharya institute of technology,was given the ' technical  campus' status by,all india council for technical education,acharya institute of technology was given the technical campus status by the all india council for technical education.,<SUBJECT> was given the technical campus status by the <OBJECT>.
acharya institute of technology | was given the ' technical  campus' status by | all india council for technical education,acharya institute of technology,was given the ' technical  campus' status by,all india council for technical education,acharya institute of technology was given the 'technical campus' status by all india council for technical education.,<SUBJECT> was given the 'technical campus' status by <OBJECT>.
all india council for technical education | location | mumbai,all india council for technical education,location,mumbai,all india council for technical education is located in mumbai.,<SUBJECT> is located in <OBJECT>.
all india council for technical education | location | mumbai,all india council for technical education,location,mumbai,the all india council for technical education is located in mumbai.,the <SUBJECT> is located in <OBJECT>.
bangalore | founder | kempe gowda i,bangalore,founder,kempe gowda i,kempe gowda i founded bangalore.,<OBJECT> founded <SUBJECT>.
bangalore | founder | kempe gowda i,bangalore,founder,kempe gowda i,the founder of bangalore was kempe gowda.,the founder of <SUBJECT> was <OBJECT>.
bangalore | founder | kempe gowda i,bangalore,founder,kempe gowda i,kempe gowda i was the founder of bangalore.,<OBJECT> was the founder of <SUBJECT>.
denmark | leader name | lars lkke rasmussen,denmark,leader name,lars lokke rasmussen,lars lokke rasmussen is the leader of denmark.,lars lokke rasmussen is the leader of <SUBJECT>.
denmark | leader name | lars lkke rasmussen,denmark,leader name,lars lokke rasmussen,one of denmark's leaders is lars lokke rasmussen.,one of <SUBJECT>'s leaders is <OBJECT>.
denmark | leader name | lars lkke rasmussen,denmark,leader name,lars lokke rasmussen,denmark's leader is lars lars lokke rasmussen.,<SUBJECT>'s leader is <OBJECT>.
denmark | leader name | lars lkke rasmussen,denmark,leader name,lars lokke rasmussen,the leader of denmark is lars lokke rasmussen.,the leader of <SUBJECT> is <OBJECT>.
denmark | leader name | lars lkke rasmussen,denmark,leader name,lars lokke rasmussen,the leader of denmark is lars lars lokke rasmussen,the leader of <SUBJECT> is <OBJECT>.
denmark | leader name | lars lkke rasmussen,denmark,leader name,lars lokke rasmussen,lars lokke rasmussen is the leader of denmark.,<OBJECT> is the leader of <SUBJECT>.
denmark | leader title | monarchy of denmark,denmark,leader title,monarchy of denmark,denmark is led by a monarch.,<SUBJECT> is led by a <SUBJECT>.
denmark | leader title | monarchy of denmark,denmark,leader title,monarchy of denmark,the monarch of denmark is the country's leader.,the monarch of <SUBJECT> is the country's leader.
denmark | religion | church of denmark,denmark,religion,church of denmark,the official religion of denmark is the church of denmark.,the official religion of <SUBJECT> is the <OBJECT>.
denmark | religion | church of denmark,denmark,religion,church of denmark,denmark's religion is led by church of denmark.,<SUBJECT>'s religion is led by <OBJECT>.
denmark | religion | church of denmark,denmark,religion,church of denmark,church of denmark is the religion of denmark.,<OBJECT> is the religion of <SUBJECT>.
european university association | headquarters | brussels,european university association,headquarters,brussels,the headquarters of the european university association is in brussels.,the headquarters of the <SUBJECT> is in <OBJECT>.
european university association | headquarters | brussels,european university association,headquarters,brussels,the european university associatian headquarter is in brussels.,the <SUBJECT> headquarter is in <OBJECT>.
india | largest city | mumbai,india,largest city,mumbai,the largest city in india is mumbai.,the largest city in <SUBJECT> is <OBJECT>.
india | largest city | mumbai,india,largest city,mumbai,mumbai is india's largest city.,<OBJECT> is <SUBJECT>'s largest city.
india | river | ganges,india,river,ganges,the ganges is a river in india.,the <OBJECT> is a river in <SUBJECT>.
india | river | ganges,india,river,ganges,the ganges is india's most well known river.,the <OBJECT> is <SUBJECT>'s most well known river.
karnataka | has to its northeast | telangana,karnataka,has to its northeast,telangana,karnataka neighbors telangana to its northeast.,<SUBJECT> neighbors <OBJECT> to its northeast.
karnataka | has to its northeast | telangana,karnataka,has to its northeast,telangana,karnataka has to its northeast telangana.,<SUBJECT> has to its northeast <OBJECT>.
karnataka | has to its northeast | telangana,karnataka,has to its northeast,telangana,to the northeast of karnataka is telagana.,to the northeast of <SUBJECT> is <OBJECT>.
karnataka | has to its west | arabian sea,karnataka,has to its west,arabian sea,the arabian sea is west of karnataka.,the <OBJECT> is west of <SUBJECT>.
karnataka | has to its west | arabian sea,karnataka,has to its west,arabian sea,the west of karnataka is the arabian sea.,the west of <SUBJECT> is the <OBJECT>.
karnataka | has to its west | arabian sea,karnataka,has to its west,arabian sea,to the west karnataka borders on the arabian sea.,to the west <SUBJECT> borders on the <OBJECT>.
kerala | leader name | kochi,kerala,leader name,kochi,kochi is the leader of kerala.,<OBJECT> is the leader of <SUBJECT>.
kerala | leader name | kochi,kerala,leader name,kochi,the leader of kerala is kochi.,the leader of <SUBJECT> is <OBJECT>.
kerala | leader name | kochi,kerala,leader name,kochi,the kerala leader is in kochi.,the <SUBJECT> leader is in <OBJECT>.
"romania | anthem | desteapta-te, romane!",romania,anthem,"desteapta-te, romane!",the anthem of romania is called desteapta te romane.,the anthem of <SUBJECT> is called <OBJECT>.
"romania | anthem | desteapta-te, romane!",romania,anthem,"desteapta-te, romane!","desteapta te, romane is the romanan anthem.",<OBJECT> is the <SUBJECT> anthem.
"romania | anthem | desteapta-te, romane!",romania,anthem,"desteapta-te, romane!","the national anthem of romania is desteapta-te, romane!",the national anthem of <SUBJECT> is <OBJECT>
romania | ethnic group | germans of romania,romania,ethnic group,germans of romania,one of the ethnic groups in romania are the germans of romania.,one of the ethnic groups in <SUBJECT> are the <OBJECT>.
romania | ethnic group | germans of romania,romania,ethnic group,germans of romania,germans of romania is an ethnic group in romania.,<OBJECT> is an ethnic group in <SUBJECT>.
romania | ethnic group | germans of romania,romania,ethnic group,germans of romania,the germans of romania are an ethnic group in romania.,the <OBJECT> are an ethnic group in <SUBJECT>.
romania | ethnic group | germans of romania,romania,ethnic group,germans of romania,romania has many ethnic groups one of which are germans.,<SUBJECT> has many ethnic groups one of which are <OBJECT>.
romania | leader name | klaus iohannis,romania,leader name,klaus iohannis,the leader of romania is klaus iohannis.,the leader of <SUBJECT> is <OBJECT>.
romania | leader name | klaus iohannis,romania,leader name,klaus iohannis,romania's leader is klaus iohannis.,<SUBJECT>'s leader is <OBJECT>.
romania | leader title | prime minister of romania,romania,leader title,prime minister of romania,the leader of romania is known as the prime minister.,the leader of <SUBJECT> is known as the <OBJECT>.
romania | leader title | prime minister of romania,romania,leader title,prime minister of romania,romania's leader is call the prime minister of romania.,<SUBJECT>'s leader is call the <OBJECT>.
romania | leader title | prime minister of romania,romania,leader title,prime minister of romania,"the title of the leader of romania is ""prime minister"".","the title of the leader of <SUBJECT> is ""<OBJECT>""."
school of business and social sciences at the aarhus university | affiliation | european university association,school of business and social sciences at the aarhus university,affiliation,european university association,the aarhus university school of business and social sciences is affiliated with the european university association.,the <SUBJECT> and social sciences is affiliated with the <OBJECT>.
school of business and social sciences at the aarhus university | affiliation | european university association,school of business and social sciences at the aarhus university,affiliation,european university association,the school of business and social sciences at the aarhus university is affiliated to european university association.,the <SUBJECT> is affiliated to <OBJECT>.
school of business and social sciences at the aarhus university | affiliation | european university association,school of business and social sciences at the aarhus university,affiliation,european university association,the school of business and social sciences at aarhus university is affiliated to the european university association.,the <SUBJECT> is affiliated to the <OBJECT>.
school of business and social sciences at the aarhus university | affiliation | european university association,school of business and social sciences at the aarhus university,affiliation,european university association,the school of business and social sciences at the aarhus university is affiliated with the european university association.,the <SUBJECT> is affiliated with the <OBJECT>.
school of business and social sciences at the aarhus university | city | aarhus,school of business and social sciences at the aarhus university,city,aarhus,the aarhus university school of business and social sciences is in the city of aarhus.,the <SUBJECT> is in the city of <OBJECT>.
school of business and social sciences at the aarhus university | city | aarhus,school of business and social sciences at the aarhus university,city,aarhus,the school of business and social sciences at aarhus university is situated in the city of aarhus.,the <SUBJECT> is situated in the city of <OBJECT>.
school of business and social sciences at the aarhus university | city | aarhus,school of business and social sciences at the aarhus university,city,aarhus,the school of business and social sciences at the aarhus university is located in the city of aarhus.,the <SUBJECT> is located in the city of <OBJECT>.
school of business and social sciences at the aarhus university | established | 1928,school of business and social sciences at the aarhus university,established,1928,the school of business and social sciences at aarhus university was established in 1928.,the <SUBJECT> was established in <OBJECT>.
school of business and social sciences at the aarhus university | established | 1928,school of business and social sciences at the aarhus university,established,1928,aarhus university school of business and social sciences was established in 1928.,<SUBJECT> was established in <OBJECT>.
school of business and social sciences at the aarhus university | established | 1928,school of business and social sciences at the aarhus university,established,1928,the school of business and social sciences at the aarhus university was established in 1928.,the <SUBJECT> was established in <OBJECT>.
school of business and social sciences at the aarhus university | established | 1928,school of business and social sciences at the aarhus university,established,1928,the school of business and social sciences at the aarhus university is established in 1928.,the <SUBJECT> is established in <OBJECT>.
school of business and social sciences at the aarhus university | latin name | universitas aarhusiensis,school of business and social sciences at the aarhus university,latin name,universitas aarhusiensis,"the latin name of school of business and social sciences at the aarhus university is ""universitas aarhusiensis"".","the latin name of <SUBJECT> is ""<OBJECT>""."
school of business and social sciences at the aarhus university | latin name | universitas aarhusiensis,school of business and social sciences at the aarhus university,latin name,universitas aarhusiensis,"the latin name of the school of business and social sciences at aarhus university is ""universitas aarhusiensis"".","the latin name of the <SUBJECT> is ""<OBJECT>""."
school of business and social sciences at the aarhus university | latin name | universitas aarhusiensis,school of business and social sciences at the aarhus university,latin name,universitas aarhusiensis,the school of business and social sciences at the aarhus university has the latin name universitas aarhusiensis.,the <SUBJECT> has the latin name <OBJECT>.
switzerland | anthem | swiss psalm,switzerland,anthem,swiss psalm,the swiss psalm is the anthem of switzerland.,the <OBJECT> is the anthem of <SUBJECT>.
switzerland | anthem | swiss psalm,switzerland,anthem,swiss psalm,the anthem of switzerland is called the swiss psalm.,the anthem of <SUBJECT> is called the <OBJECT>.
switzerland | leader name | johann schneider-ammann,switzerland,leader name,johann schneider-ammann,johann schneider ammann is the leader of switzerland.,<OBJECT> is the leader of <SUBJECT>.
switzerland | leader name | johann schneider-ammann,switzerland,leader name,johann schneider-ammann,johann schneider-ammann is the leader of switzerland.,<OBJECT> is the leader of <SUBJECT>.
switzerland | leader name | johann schneider-ammann,switzerland,leader name,johann schneider-ammann,the leader of switzerland is johann schneider-ammann.,the leader of <SUBJECT> is <OBJECT>.
switzerland | leader name | johann schneider-ammann,switzerland,leader name,johann schneider-ammann,switzerland has a leader called johann schneider ammann.,<SUBJECT> has a leader called <OBJECT>.
switzerland | leader name | johann schneider-ammann,switzerland,leader name,johann schneider-ammann,johann schneider ammann is the name of the leader of switzerland.,<OBJECT> is the name of the leader of <SUBJECT>.
switzerland | leader name | johann schneider-ammann,switzerland,leader name,johann schneider-ammann,the leader of switzerland is johann 'schneider-ammann.,the leader of <SUBJECT> is <OBJECT>.
switzerland | leader title | federal chancellor of switzerland,switzerland,leader title,federal chancellor of switzerland,the federal chancellor of switzerland helps to lead the country.,the <OBJECT> helps to lead the country.
switzerland | leader title | federal chancellor of switzerland,switzerland,leader title,federal chancellor of switzerland,the federal chancellor of switzerland is the title of the leader of switzerland.,the <OBJECT> is the title of the leader of <SUBJECT>.
switzerland | leader title | federal chancellor of switzerland,switzerland,leader title,federal chancellor of switzerland,the leader of switzerland is titled the federal chancellor of switzerland.,the leader of <SUBJECT> is titled the <OBJECT>.
switzerland | legislature | federal assembly (switzerland),switzerland,legislature,federal assembly (switzerland),switzerland's legislature is formed in the federal assembly.,<SUBJECT>'s legislature is formed in the <OBJECT>.
switzerland | legislature | federal assembly (switzerland),switzerland,legislature,federal assembly (switzerland),switzerland's legislature is known as the federal assembly.,<SUBJECT>'s legislature is known as the <OBJECT>.
switzerland | legislature | federal assembly (switzerland),switzerland,legislature,federal assembly (switzerland),the federal assembly legislates in switzerland.,the <OBJECT> legislates in <SUBJECT>.
tennis | sports governing body | international tennis federation,tennis,sports governing body,international tennis federation,the sport tennis has a governing body called the international tennis federation.,the sport <SUBJECT> has a governing body called the <OBJECT>.
tennis | sports governing body | international tennis federation,tennis,sports governing body,international tennis federation,the international tennis federation is the governing body for the tennis sport.,the <OBJECT> is the governing body for the <SUBJECT> sport.
tennis | sports governing body | international tennis federation,tennis,sports governing body,international tennis federation,the tennis sport is governed by the international tennis federation.,the <SUBJECT> sport is governed by the <OBJECT>.
tennis | sports governing body | international tennis federation,tennis,sports governing body,international tennis federation,the international tennis federation is the governing body of the sport of tennis.,the <OBJECT> is the governing body of the sport of <SUBJECT>.
tennis | sports governing body | international tennis federation,tennis,sports governing body,international tennis federation,the international tennis federation is the governing body of tennis.,the <OBJECT> is the governing body of <SUBJECT>.
tennis | sports governing body | international tennis federation,tennis,sports governing body,international tennis federation,the sports governing body of tennis is the international tennis federation.,the sports governing body of <SUBJECT> is the <OBJECT>.
visvesvaraya technological university | city | belgaum,visvesvaraya technological university,city,belgaum,the visvesvaraya technologiccal university is in the city of belgaum.,the <SUBJECT> is in the city of <OBJECT>.
visvesvaraya technological university | city | belgaum,visvesvaraya technological university,city,belgaum,visvesvaraya technological university is in the city of belgaum.,<SUBJECT> is in the city of <OBJECT>.
visvesvaraya technological university | city | belgaum,visvesvaraya technological university,city,belgaum,visvesvaraya technological university is located in belgaum.,<SUBJECT> is located in <OBJECT>.
