Triple,Prediction
1 Decembrie 1918 University | state | Alba,state
Acharya Institute of Technology | president | B.M. Reddy ,leader name
"Kerala | has to its northwest | Mah, India",has to its northeast
Mendrisio | neighboring municipality | Meride,largest city
Romania | capital | Bucharest,largest city
School of Business and Social Sciences at the Aarhus University | dean | Thomas Pallesen ,dean
School of Business and Social Sciences at the Aarhus University | number of students | 16000,number of students
