Triple,Prediction,Template,Sentence
1 Decembrie 1918 University | state | Alba,state,the <SUBJECT> is in the <PREDICATE> of <OBJECT>.,the 1 Decembrie 1918 University is in the state of Alba.
Acharya Institute of Technology | president | B.M. Reddy ,leader name,the <PREDICATE> of <SUBJECT> is <OBJECT>.,the president of Acharya Institute of Technology is B.M. Reddy.
"Kerala | has to its northwest | Mah, India",has to its northeast,<OBJECT> is the area to the northwest of <SUBJECT>.,"Mah, India is the area to the northwest of Kerala."
Mendrisio | neighboring municipality | Meride,largest city,<OBJECT> is <SUBJECT>'s <PREDICATE>.,Meride is Mendrisio's neighboring municipality.
Romania | capital | Bucharest,largest city,<OBJECT> is <SUBJECT>'s <PREDICATE>.,Bucharest is Romania's capital.
School of Business and Social Sciences at the Aarhus University | dean | Thomas Pallesen ,dean,the <PREDICATE> of the <SUBJECT> is <OBJECT>.,the dean of the School of Business and Social Sciences at the Aarhus University is Thomas Pallesen.
School of Business and Social Sciences at the Aarhus University | number of students | 16000,number of students,<SUBJECT> has <OBJECT> students enrolled.,School of Business and Social Sciences at the Aarhus University has 16000 students enrolled.
