Id,Category,Correctness,Grammar,Fluency
0,University,"3,3,3,3,3,3,3,3,3,3","3,3,3,3,3,3,3,3,3,3","3,3,3,3,3,3,3,3,3,3"
1,University,"1,1,1,1,1,1,1,1,1,1","1,1,1,1,1,1,1,1,1,1","1,1,1,1,1,2,2,1,1,1"
2,University,"3,3,3,3,3,3,3,3,3,3","3,3,3,3,3,3,3,3,3,3","3,3,3,3,3,3,3,3,3,3"
3,University,"1,1,1,1,1,1,1,1,1,1","1,1,1,1,1,1,1,1,1,1","2,1,1,1,1,2,2,2,1,1"
0,Food,"3,3,3,3,3,3,3,3,3,3","3,3,3,3,3,3,3,3,3,3","3,3,3,3,3,3,3,3,3,3"
1,Food,"3,3,3,3,3,3,3,3,3,3","3,3,3,3,3,3,3,3,3,3","3,3,3,3,3,3,3,3,3,3"
2,Food,"3,3,3,3,3,3,3,3,3,3","2,2,3,3,3,3,2,3,3,2","2,2,2,3,3,3,3,3,2,3"
3,Food,"3,3,3,3,3,3,3,3,3,3","3,3,3,3,3,3,3,3,3,3","3,3,3,3,3,3,3,3,3,3"
4,Food,"3,3,3,3,3,3,3,3,3,3","3,3,3,3,3,3,3,3,3,3","3,3,3,3,3,3,3,3,3,3"
5,Food,"3,3,3,3,3,3,3,3,3,3","3,3,3,3,3,3,3,3,3,3","3,3,3,3,3,3,3,3,3,3"
6,Food,"1,1,1,1,1,2,2,1,1,2","1,1,1,1,1,1,1,1,1,1","1,1,1,1,1,1,1,1,1,1"
7,Food,"3,3,3,3,3,3,3,3,3,3","3,3,3,3,3,3,3,3,3,3","3,3,3,3,3,3,3,3,3,3"
8,Food,"3,3,3,3,3,3,3,3,3,3","3,3,3,3,3,3,3,3,3,3","3,3,3,3,3,3,3,3,3,3"
9,Food,"3,3,3,3,3,3,3,3,3,3","3,3,3,3,3,3,3,3,3,3","3,3,3,3,3,3,3,3,3,3"
10,Food,"3,3,3,3,3,3,3,3,3,3","3,3,3,3,3,3,3,3,3,3","3,3,3,3,3,3,3,3,3,3"
